%YAML 1.1
%TAG !u! tag:unity3d.com,2011:
--- !u!114 &11400000
MonoBehaviour:
  m_ObjectHideFlags: 0
  m_CorrespondingSourceObject: {fileID: 0}
  m_PrefabInstance: {fileID: 0}
  m_PrefabAsset: {fileID: 0}
  m_GameObject: {fileID: 0}
  m_Enabled: 1
  m_EditorHideFlags: 0
  m_Script: {fileID: 11500000, guid: 982a5cfe8d0836944821b322fd2fa31e, type: 3}
  m_Name: Forest
  m_EditorClassIdentifier: 
  storyText: "When you walk into the forest you suddenly hear voices nearby! You guess
    there are 2 or 3 people talking..\r\n\r\nWhat would you like to do?\r\n\r\n1:
    Go towards the voices \r\n2: Head back to the fireplace"
  nextStates:
  - {fileID: 11400000, guid: 6697e723cf0859c498ba98e222fa9242, type: 2}
  - {fileID: 11400000, guid: 269be3f77f3507f44b56d11d6904281f, type: 2}
