%YAML 1.1
%TAG !u! tag:unity3d.com,2011:
--- !u!114 &11400000
MonoBehaviour:
  m_ObjectHideFlags: 0
  m_CorrespondingSourceObject: {fileID: 0}
  m_PrefabInstance: {fileID: 0}
  m_PrefabAsset: {fileID: 0}
  m_GameObject: {fileID: 0}
  m_Enabled: 1
  m_EditorHideFlags: 0
  m_Script: {fileID: 11500000, guid: 982a5cfe8d0836944821b322fd2fa31e, type: 3}
  m_Name: DeadEnd3
  m_EditorClassIdentifier: 
  storyText: "You are reaching a dead end..\n\r\nWhat would you like to do?\r\n\r\n1:
    Go back\r\n"
  nextStates:
  - {fileID: 11400000, guid: 04cc987e37911a240aa4a997400bc560, type: 2}
