%YAML 1.1
%TAG !u! tag:unity3d.com,2011:
--- !u!114 &11400000
MonoBehaviour:
  m_ObjectHideFlags: 0
  m_CorrespondingSourceObject: {fileID: 0}
  m_PrefabInstance: {fileID: 0}
  m_PrefabAsset: {fileID: 0}
  m_GameObject: {fileID: 0}
  m_Enabled: 1
  m_EditorHideFlags: 0
  m_Script: {fileID: 11500000, guid: 982a5cfe8d0836944821b322fd2fa31e, type: 3}
  m_Name: Loose
  m_EditorClassIdentifier: 
  storyText: "The creature turns black and begins to swell. As he's getting bigger
    and bigger he shouts: \r\n\r\n\"YOU are not worthy to know this secret!\"\r\n\r\nAnd
    then it gets dark as the creature absorbs you..\r\n\r\nYou lost! GAME OVER\r\n\r\n1:
    Restart"
  nextStates:
  - {fileID: 11400000, guid: 0fa49b9306bd3a143a66c4a1f5b4ba17, type: 2}
